{
    "NE-COARSE-METO": {
        "LOC": {
            "partial": {
                "correct": 2,
                "incorrect": 0,
                "partial": 0,
                "missed": 0,
                "spurious": 0,
                "possible": 2,
                "actual": 2,
                "TP": 2,
                "FP": 0,
                "FN": 0,
                "P_micro": 1.0,
                "R_micro": 1.0,
                "F1_micro": 1.0,
                "P_macro_doc": 1.0,
                "R_macro_doc": 1.0,
                "F1_macro_doc": 1.0,
                "P_macro_doc_std": 0.0,
                "R_macro_doc_std": 0.0,
                "F1_macro_doc_std": 0.0
            },
            "strict": {
                "correct": 2,
                "incorrect": 0,
                "partial": 0,
                "missed": 0,
                "spurious": 0,
                "possible": 2,
                "actual": 2,
                "TP": 2,
                "FP": 0,
                "FN": 0,
                "P_micro": 1.0,
                "R_micro": 1.0,
                "F1_micro": 1.0,
                "P_macro_doc": 1.0,
                "R_macro_doc": 1.0,
                "F1_macro_doc": 1.0,
                "P_macro_doc_std": 0.0,
                "R_macro_doc_std": 0.0,
                "F1_macro_doc_std": 0.0
            },
            "ent_type": {
                "correct": 2,
                "incorrect": 0,
                "partial": 0,
                "missed": 0,
                "spurious": 0,
                "possible": 2,
                "actual": 2,
                "TP": 2,
                "FP": 0,
                "FN": 0,
                "P_micro": 1.0,
                "R_micro": 1.0,
                "F1_micro": 1.0,
                "P_macro_doc": 1.0,
                "R_macro_doc": 1.0,
                "F1_macro_doc": 1.0,
                "P_macro_doc_std": 0.0,
                "R_macro_doc_std": 0.0,
                "F1_macro_doc_std": 0.0
            },
            "exact": {
                "correct": 2,
                "incorrect": 0,
                "partial": 0,
                "missed": 0,
                "spurious": 0,
                "possible": 2,
                "actual": 2,
                "TP": 2,
                "FP": 0,
                "FN": 0,
                "P_micro": 1.0,
                "R_micro": 1.0,
                "F1_micro": 1.0,
                "P_macro_doc": 1.0,
                "R_macro_doc": 1.0,
                "F1_macro_doc": 1.0,
                "P_macro_doc_std": 0.0,
                "R_macro_doc_std": 0.0,
                "F1_macro_doc_std": 0.0
            }
        },
        "ORG": {
            "partial": {
                "correct": 77,
                "incorrect": 0,
                "partial": 0,
                "missed": 0,
                "spurious": 0,
                "possible": 77,
                "actual": 77,
                "TP": 77,
                "FP": 0,
                "FN": 0,
                "P_micro": 1.0,
                "R_micro": 1.0,
                "F1_micro": 1.0,
                "P_macro_doc": 1.0,
                "R_macro_doc": 1.0,
                "F1_macro_doc": 1.0,
                "P_macro_doc_std": 0.0,
                "R_macro_doc_std": 0.0,
                "F1_macro_doc_std": 0.0
            },
            "strict": {
                "correct": 77,
                "incorrect": 0,
                "partial": 0,
                "missed": 0,
                "spurious": 0,
                "possible": 77,
                "actual": 77,
                "TP": 77,
                "FP": 0,
                "FN": 0,
                "P_micro": 1.0,
                "R_micro": 1.0,
                "F1_micro": 1.0,
                "P_macro_doc": 1.0,
                "R_macro_doc": 1.0,
                "F1_macro_doc": 1.0,
                "P_macro_doc_std": 0.0,
                "R_macro_doc_std": 0.0,
                "F1_macro_doc_std": 0.0
            },
            "ent_type": {
                "correct": 77,
                "incorrect": 0,
                "partial": 0,
                "missed": 0,
                "spurious": 0,
                "possible": 77,
                "actual": 77,
                "TP": 77,
                "FP": 0,
                "FN": 0,
                "P_micro": 1.0,
                "R_micro": 1.0,
                "F1_micro": 1.0,
                "P_macro_doc": 1.0,
                "R_macro_doc": 1.0,
                "F1_macro_doc": 1.0,
                "P_macro_doc_std": 0.0,
                "R_macro_doc_std": 0.0,
                "F1_macro_doc_std": 0.0
            },
            "exact": {
                "correct": 77,
                "incorrect": 0,
                "partial": 0,
                "missed": 0,
                "spurious": 0,
                "possible": 77,
                "actual": 77,
                "TP": 77,
                "FP": 0,
                "FN": 0,
                "P_micro": 1.0,
                "R_micro": 1.0,
                "F1_micro": 1.0,
                "P_macro_doc": 1.0,
                "R_macro_doc": 1.0,
                "F1_macro_doc": 1.0,
                "P_macro_doc_std": 0.0,
                "R_macro_doc_std": 0.0,
                "F1_macro_doc_std": 0.0
            }
        },
        "ALL": {
            "partial": {
                "correct": 79,
                "incorrect": 0,
                "partial": 0,
                "missed": 0,
                "spurious": 0,
                "possible": 79,
                "actual": 79,
                "TP": 79,
                "FP": 0,
                "FN": 0,
                "P_micro": 1.0,
                "R_micro": 1.0,
                "F1_micro": 1.0,
                "P_macro_doc": 1.0,
                "R_macro_doc": 1.0,
                "F1_macro_doc": 1.0,
                "P_macro_doc_std": 0.0,
                "R_macro_doc_std": 0.0,
                "F1_macro_doc_std": 0.0,
                "P_macro": 1.0,
                "R_macro": 1.0,
                "F1_macro": 1.0,
                "F1_macro (recomputed from P & R)": 1.0
            },
            "strict": {
                "correct": 79,
                "incorrect": 0,
                "partial": 0,
                "missed": 0,
                "spurious": 0,
                "possible": 79,
                "actual": 79,
                "TP": 79,
                "FP": 0,
                "FN": 0,
                "P_micro": 1.0,
                "R_micro": 1.0,
                "F1_micro": 1.0,
                "P_macro_doc": 1.0,
                "R_macro_doc": 1.0,
                "F1_macro_doc": 1.0,
                "P_macro_doc_std": 0.0,
                "R_macro_doc_std": 0.0,
                "F1_macro_doc_std": 0.0,
                "P_macro": 1.0,
                "R_macro": 1.0,
                "F1_macro": 1.0,
                "F1_macro (recomputed from P & R)": 1.0
            },
            "ent_type": {
                "correct": 79,
                "incorrect": 0,
                "partial": 0,
                "missed": 0,
                "spurious": 0,
                "possible": 79,
                "actual": 79,
                "TP": 79,
                "FP": 0,
                "FN": 0,
                "P_micro": 1.0,
                "R_micro": 1.0,
                "F1_micro": 1.0,
                "P_macro_doc": 1.0,
                "R_macro_doc": 1.0,
                "F1_macro_doc": 1.0,
                "P_macro_doc_std": 0.0,
                "R_macro_doc_std": 0.0,
                "F1_macro_doc_std": 0.0,
                "P_macro": 1.0,
                "R_macro": 1.0,
                "F1_macro": 1.0,
                "F1_macro (recomputed from P & R)": 1.0
            },
            "exact": {
                "correct": 79,
                "incorrect": 0,
                "partial": 0,
                "missed": 0,
                "spurious": 0,
                "possible": 79,
                "actual": 79,
                "TP": 79,
                "FP": 0,
                "FN": 0,
                "P_micro": 1.0,
                "R_micro": 1.0,
                "F1_micro": 1.0,
                "P_macro_doc": 1.0,
                "R_macro_doc": 1.0,
                "F1_macro_doc": 1.0,
                "P_macro_doc_std": 0.0,
                "R_macro_doc_std": 0.0,
                "F1_macro_doc_std": 0.0,
                "P_macro": 1.0,
                "R_macro": 1.0,
                "F1_macro": 1.0,
                "F1_macro (recomputed from P & R)": 1.0
            }
        }
    },
    "NE-COARSE-LIT": {
        "LOC": {
            "partial": {
                "correct": 445,
                "incorrect": 0,
                "partial": 36,
                "missed": 59,
                "spurious": 31,
                "possible": 540,
                "actual": 512,
                "TP": 445,
                "FP": 67,
                "FN": 95,
                "P_micro": 0.904296875,
                "R_micro": 0.8574074074074074,
                "F1_micro": 0.8802281368821293,
                "P_macro_doc": 0.8875573129854294,
                "R_macro_doc": 0.8470487631894461,
                "F1_macro_doc": 0.8597631162251136,
                "P_macro_doc_std": 0.10870997185077864,
                "R_macro_doc_std": 0.15071594988706394,
                "F1_macro_doc_std": 0.12445971790551659
            },
            "strict": {
                "correct": 431,
                "incorrect": 50,
                "partial": 0,
                "missed": 59,
                "spurious": 31,
                "possible": 540,
                "actual": 512,
                "TP": 431,
                "FP": 81,
                "FN": 109,
                "P_micro": 0.841796875,
                "R_micro": 0.7981481481481482,
                "F1_micro": 0.8193916349809885,
                "P_macro_doc": 0.8263420256383766,
                "R_macro_doc": 0.7947306155969073,
                "F1_macro_doc": 0.8045017915254785,
                "P_macro_doc_std": 0.15307232494431453,
                "R_macro_doc_std": 0.18015879825393177,
                "F1_macro_doc_std": 0.16103436047536726
            },
            "ent_type": {
                "correct": 455,
                "incorrect": 26,
                "partial": 0,
                "missed": 59,
                "spurious": 31,
                "possible": 540,
                "actual": 512,
                "TP": 455,
                "FP": 57,
                "FN": 85,
                "P_micro": 0.888671875,
                "R_micro": 0.8425925925925926,
                "F1_micro": 0.8650190114068441,
                "P_macro_doc": 0.895116421503066,
                "R_macro_doc": 0.8480678038083381,
                "F1_macro_doc": 0.8626208194967386,
                "P_macro_doc_std": 0.10968890044048084,
                "R_macro_doc_std": 0.1384566125868469,
                "F1_macro_doc_std": 0.10886424347594303
            },
            "exact": {
                "correct": 445,
                "incorrect": 36,
                "partial": 0,
                "missed": 59,
                "spurious": 31,
                "possible": 540,
                "actual": 512,
                "TP": 445,
                "FP": 67,
                "FN": 95,
                "P_micro": 0.869140625,
                "R_micro": 0.8240740740740741,
                "F1_micro": 0.8460076045627376,
                "P_macro_doc": 0.8413753353140709,
                "R_macro_doc": 0.8089865787424059,
                "F1_macro_doc": 0.8191203954231432,
                "P_macro_doc_std": 0.15671599194486863,
                "R_macro_doc_std": 0.18221492104971604,
                "F1_macro_doc_std": 0.1642291664280272
            }
        },
        "PERS": {
            "partial": {
                "correct": 338,
                "incorrect": 0,
                "partial": 108,
                "missed": 102,
                "spurious": 26,
                "possible": 548,
                "actual": 472,
                "TP": 338,
                "FP": 134,
                "FN": 210,
                "P_micro": 0.8305084745762712,
                "R_micro": 0.7153284671532847,
                "F1_micro": 0.7686274509803922,
                "P_macro_doc": 0.8277769443497334,
                "R_macro_doc": 0.7587048694832979,
                "F1_macro_doc": 0.7998395529624919,
                "P_macro_doc_std": 0.13853325610108608,
                "R_macro_doc_std": 0.19481250893583923,
                "F1_macro_doc_std": 0.130520203910682
            },
            "strict": {
                "correct": 325,
                "incorrect": 121,
                "partial": 0,
                "missed": 102,
                "spurious": 26,
                "possible": 548,
                "actual": 472,
                "TP": 325,
                "FP": 147,
                "FN": 223,
                "P_micro": 0.6885593220338984,
                "R_micro": 0.593065693430657,
                "F1_micro": 0.6372549019607843,
                "P_macro_doc": 0.6966670027329172,
                "R_macro_doc": 0.6401670032811075,
                "F1_macro_doc": 0.6740326908721561,
                "P_macro_doc_std": 0.20431405235577174,
                "R_macro_doc_std": 0.23746863846647642,
                "F1_macro_doc_std": 0.20271063281887183
            },
            "ent_type": {
                "correct": 418,
                "incorrect": 28,
                "partial": 0,
                "missed": 102,
                "spurious": 26,
                "possible": 548,
                "actual": 472,
                "TP": 418,
                "FP": 54,
                "FN": 130,
                "P_micro": 0.885593220338983,
                "R_micro": 0.7627737226277372,
                "F1_micro": 0.8196078431372549,
                "P_macro_doc": 0.893577779856548,
                "R_macro_doc": 0.8236596342901988,
                "F1_macro_doc": 0.8661721028960878,
                "P_macro_doc_std": 0.13338388041853527,
                "R_macro_doc_std": 0.2115403507819254,
                "F1_macro_doc_std": 0.13667687798535372
            },
            "exact": {
                "correct": 338,
                "incorrect": 108,
                "partial": 0,
                "missed": 102,
                "spurious": 26,
                "possible": 548,
                "actual": 472,
                "TP": 338,
                "FP": 134,
                "FN": 210,
                "P_micro": 0.7161016949152542,
                "R_micro": 0.6167883211678832,
                "F1_micro": 0.6627450980392157,
                "P_macro_doc": 0.7153592890183139,
                "R_macro_doc": 0.6546266787409493,
                "F1_macro_doc": 0.6905053997050541,
                "P_macro_doc_std": 0.20499210148342356,
                "R_macro_doc_std": 0.23255731233197333,
                "F1_macro_doc_std": 0.1978413004621679
            }
        },
        "ORG": {
            "partial": {
                "correct": 96,
                "incorrect": 0,
                "partial": 16,
                "missed": 43,
                "spurious": 14,
                "possible": 155,
                "actual": 126,
                "TP": 96,
                "FP": 30,
                "FN": 59,
                "P_micro": 0.8253968253968254,
                "R_micro": 0.6709677419354839,
                "F1_micro": 0.7402135231316725,
                "P_macro_doc": 0.777270287415215,
                "R_macro_doc": 0.5902025177887246,
                "F1_macro_doc": 0.7067364086579655,
                "P_macro_doc_std": 0.2759740887202555,
                "R_macro_doc_std": 0.3354716427240917,
                "F1_macro_doc_std": 0.24959367926249068
            },
            "strict": {
                "correct": 87,
                "incorrect": 25,
                "partial": 0,
                "missed": 43,
                "spurious": 14,
                "possible": 155,
                "actual": 126,
                "TP": 87,
                "FP": 39,
                "FN": 68,
                "P_micro": 0.6904761904761905,
                "R_micro": 0.5612903225806452,
                "F1_micro": 0.6192170818505338,
                "P_macro_doc": 0.5733738349680378,
                "R_macro_doc": 0.44102353585112203,
                "F1_macro_doc": 0.5249514587469927,
                "P_macro_doc_std": 0.38005426416561555,
                "R_macro_doc_std": 0.3525243765878674,
                "F1_macro_doc_std": 0.33158388821511137
            },
            "ent_type": {
                "correct": 99,
                "incorrect": 13,
                "partial": 0,
                "missed": 43,
                "spurious": 14,
                "possible": 155,
                "actual": 126,
                "TP": 99,
                "FP": 27,
                "FN": 56,
                "P_micro": 0.7857142857142857,
                "R_micro": 0.6387096774193548,
                "F1_micro": 0.7046263345195729,
                "P_macro_doc": 0.7062631142341287,
                "R_macro_doc": 0.5170224411603721,
                "F1_macro_doc": 0.6257616959729417,
                "P_macro_doc_std": 0.3249533901374773,
                "R_macro_doc_std": 0.3293611447992644,
                "F1_macro_doc_std": 0.2741939850629699
            },
            "exact": {
                "correct": 96,
                "incorrect": 16,
                "partial": 0,
                "missed": 43,
                "spurious": 14,
                "possible": 155,
                "actual": 126,
                "TP": 96,
                "FP": 30,
                "FN": 59,
                "P_micro": 0.7619047619047619,
                "R_micro": 0.6193548387096774,
                "F1_micro": 0.6832740213523132,
                "P_macro_doc": 0.6951129654028205,
                "R_macro_doc": 0.5401614668856048,
                "F1_macro_doc": 0.6418342486248725,
                "P_macro_doc_std": 0.3615358143085943,
                "R_macro_doc_std": 0.36406643257894716,
                "F1_macro_doc_std": 0.31811570633817177
            }
        },
        "TIME": {
            "partial": {
                "correct": 41,
                "incorrect": 0,
                "partial": 9,
                "missed": 7,
                "spurious": 0,
                "possible": 57,
                "actual": 50,
                "TP": 41,
                "FP": 9,
                "FN": 16,
                "P_micro": 0.91,
                "R_micro": 0.7982456140350878,
                "F1_micro": 0.8504672897196263,
                "P_macro_doc": 0.9117647058823529,
                "R_macro_doc": 0.7856359649122806,
                "F1_macro_doc": 0.8919467787114845,
                "P_macro_doc_std": 0.160982959545814,
                "R_macro_doc_std": 0.3152531462277975,
                "F1_macro_doc_std": 0.16171595176393727
            },
            "strict": {
                "correct": 41,
                "incorrect": 9,
                "partial": 0,
                "missed": 7,
                "spurious": 0,
                "possible": 57,
                "actual": 50,
                "TP": 41,
                "FP": 9,
                "FN": 16,
                "P_micro": 0.82,
                "R_micro": 0.7192982456140351,
                "F1_micro": 0.7663551401869159,
                "P_macro_doc": 0.8235294117647058,
                "R_macro_doc": 0.7072368421052632,
                "F1_macro_doc": 0.8040616246498599,
                "P_macro_doc_std": 0.321965919091628,
                "R_macro_doc_std": 0.3883158316807176,
                "F1_macro_doc_std": 0.3178955795703872
            },
            "ent_type": {
                "correct": 50,
                "incorrect": 0,
                "partial": 0,
                "missed": 7,
                "spurious": 0,
                "possible": 57,
                "actual": 50,
                "TP": 50,
                "FP": 0,
                "FN": 7,
                "P_micro": 1.0,
                "R_micro": 0.8771929824561403,
                "F1_micro": 0.9345794392523363,
                "P_macro_doc": 1.0,
                "R_macro_doc": 0.8640350877192982,
                "F1_macro_doc": 0.9798319327731093,
                "P_macro_doc_std": 0.0,
                "R_macro_doc_std": 0.3097000604194689,
                "F1_macro_doc_std": 0.05609519081774331
            },
            "exact": {
                "correct": 41,
                "incorrect": 9,
                "partial": 0,
                "missed": 7,
                "spurious": 0,
                "possible": 57,
                "actual": 50,
                "TP": 41,
                "FP": 9,
                "FN": 16,
                "P_micro": 0.82,
                "R_micro": 0.7192982456140351,
                "F1_micro": 0.7663551401869159,
                "P_macro_doc": 0.8235294117647058,
                "R_macro_doc": 0.7072368421052632,
                "F1_macro_doc": 0.8040616246498599,
                "P_macro_doc_std": 0.321965919091628,
                "R_macro_doc_std": 0.3883158316807176,
                "F1_macro_doc_std": 0.3178955795703872
            }
        },
        "PROD": {
            "partial": {
                "correct": 11,
                "incorrect": 0,
                "partial": 6,
                "missed": 22,
                "spurious": 4,
                "possible": 39,
                "actual": 21,
                "TP": 11,
                "FP": 10,
                "FN": 28,
                "P_micro": 0.6666666666666666,
                "R_micro": 0.358974358974359,
                "F1_micro": 0.4666666666666667,
                "P_macro_doc": 0.6296296296296297,
                "R_macro_doc": 0.3921130952380952,
                "F1_macro_doc": 0.5809027777777778,
                "P_macro_doc_std": 0.28628934877296863,
                "R_macro_doc_std": 0.379270929962882,
                "F1_macro_doc_std": 0.23859574027260957
            },
            "strict": {
                "correct": 7,
                "incorrect": 10,
                "partial": 0,
                "missed": 22,
                "spurious": 4,
                "possible": 39,
                "actual": 21,
                "TP": 7,
                "FP": 14,
                "FN": 32,
                "P_micro": 0.3333333333333333,
                "R_micro": 0.1794871794871795,
                "F1_micro": 0.23333333333333334,
                "P_macro_doc": 0.3333333333333333,
                "R_macro_doc": 0.18125,
                "F1_macro_doc": 0.30104166666666665,
                "P_macro_doc_std": 0.33333333333333337,
                "R_macro_doc_std": 0.29210532489725916,
                "F1_macro_doc_std": 0.31951671133047865
            },
            "ent_type": {
                "correct": 9,
                "incorrect": 8,
                "partial": 0,
                "missed": 22,
                "spurious": 4,
                "possible": 39,
                "actual": 21,
                "TP": 9,
                "FP": 12,
                "FN": 30,
                "P_micro": 0.42857142857142855,
                "R_micro": 0.23076923076923078,
                "F1_micro": 0.3,
                "P_macro_doc": 0.4444444444444444,
                "R_macro_doc": 0.26458333333333334,
                "F1_macro_doc": 0.42604166666666665,
                "P_macro_doc_std": 0.36851386559504445,
                "R_macro_doc_std": 0.36263766543050774,
                "F1_macro_doc_std": 0.36906030964163267
            },
            "exact": {
                "correct": 11,
                "incorrect": 6,
                "partial": 0,
                "missed": 22,
                "spurious": 4,
                "possible": 39,
                "actual": 21,
                "TP": 11,
                "FP": 10,
                "FN": 28,
                "P_micro": 0.5238095238095238,
                "R_micro": 0.28205128205128205,
                "F1_micro": 0.36666666666666664,
                "P_macro_doc": 0.4999999999999999,
                "R_macro_doc": 0.32648809523809524,
                "F1_macro_doc": 0.46944444444444444,
                "P_macro_doc_std": 0.24845199749997665,
                "R_macro_doc_std": 0.351117198771639,
                "F1_macro_doc_std": 0.23384533772412194
            }
        },
        "ALL": {
            "partial": {
                "correct": 931,
                "incorrect": 0,
                "partial": 175,
                "missed": 233,
                "spurious": 75,
                "possible": 1339,
                "actual": 1181,
                "TP": 931,
                "FP": 250,
                "FN": 408,
                "P_micro": 0.8624047417442845,
                "R_micro": 0.7606422703510082,
                "F1_micro": 0.8083333333333333,
                "P_macro_doc": 0.8553874256302743,
                "R_macro_doc": 0.7639755105404926,
                "F1_macro_doc": 0.8042499047459488,
                "P_macro_doc_std": 0.10362877236805176,
                "R_macro_doc_std": 0.1202876008763714,
                "F1_macro_doc_std": 0.10573502785500717,
                "P_macro": 0.8273737683279527,
                "R_macro": 0.6801847179011246,
                "F1_macro": 0.7412406134760974,
                "F1_macro (recomputed from P & R)": 0.7465939110815034
            },
            "strict": {
                "correct": 891,
                "incorrect": 215,
                "partial": 0,
                "missed": 233,
                "spurious": 75,
                "possible": 1339,
                "actual": 1181,
                "TP": 891,
                "FP": 290,
                "FN": 448,
                "P_micro": 0.7544453852667231,
                "R_micro": 0.6654219566840927,
                "F1_micro": 0.7071428571428572,
                "P_macro_doc": 0.7416958306411555,
                "R_macro_doc": 0.6633345109934986,
                "F1_macro_doc": 0.6979252339856487,
                "P_macro_doc_std": 0.14659012732055424,
                "R_macro_doc_std": 0.1448057196478307,
                "F1_macro_doc_std": 0.14095406945500755,
                "P_macro": 0.6748331441686843,
                "R_macro": 0.570257917852133,
                "F1_macro": 0.6151104184625111,
                "F1_macro (recomputed from P & R)": 0.6181538932046531
            },
            "ent_type": {
                "correct": 1031,
                "incorrect": 75,
                "partial": 0,
                "missed": 233,
                "spurious": 75,
                "possible": 1339,
                "actual": 1181,
                "TP": 1031,
                "FP": 150,
                "FN": 308,
                "P_micro": 0.8729889923793396,
                "R_micro": 0.7699775952203136,
                "F1_micro": 0.8182539682539681,
                "P_macro_doc": 0.8669831855999467,
                "R_macro_doc": 0.7744160935353669,
                "F1_macro_doc": 0.8150425911576963,
                "P_macro_doc_std": 0.07895062288267395,
                "R_macro_doc_std": 0.1142914732441015,
                "F1_macro_doc_std": 0.0902157848259527,
                "P_macro": 0.7977101619249394,
                "R_macro": 0.6704076411730112,
                "F1_macro": 0.7247665256632017,
                "F1_macro (recomputed from P & R)": 0.7285396129211833
            },
            "exact": {
                "correct": 931,
                "incorrect": 175,
                "partial": 0,
                "missed": 233,
                "spurious": 75,
                "possible": 1339,
                "actual": 1181,
                "TP": 931,
                "FP": 250,
                "FN": 408,
                "P_micro": 0.7883149872988993,
                "R_micro": 0.6952949962658701,
                "F1_micro": 0.7388888888888889,
                "P_macro_doc": 0.7791650405283916,
                "R_macro_doc": 0.6964804844530585,
                "F1_macro_doc": 0.7330144723196762,
                "P_macro_doc_std": 0.15359272916130276,
                "R_macro_doc_std": 0.14899986014598066,
                "F1_macro_doc_std": 0.14630170193654898,
                "P_macro": 0.7381913211259079,
                "R_macro": 0.6123133523233903,
                "F1_macro": 0.6650097061615698,
                "F1_macro (recomputed from P & R)": 0.6693859138453496
            }
        }
    }
}