System	Evaluation	Label	P	R	F1	F1_std	P_std	R_std	TP	FP	FN
../../data/release-v01/fr/HIPE-data-v01-sample-fr.tsv	NE-COARSE-LIT-micro-fuzzy	ALL	1.0	1.0	1.0				382	0	0
../../data/release-v01/fr/HIPE-data-v01-sample-fr.tsv	NE-COARSE-LIT-micro-fuzzy	LOC	1.0	1.0	1.0				202	0	0
../../data/release-v01/fr/HIPE-data-v01-sample-fr.tsv	NE-COARSE-LIT-micro-fuzzy	ORG	1.0	1.0	1.0				52	0	0
../../data/release-v01/fr/HIPE-data-v01-sample-fr.tsv	NE-COARSE-LIT-micro-fuzzy	PERS	1.0	1.0	1.0				112	0	0
../../data/release-v01/fr/HIPE-data-v01-sample-fr.tsv	NE-COARSE-LIT-micro-fuzzy	PROD	1.0	1.0	1.0				4	0	0
../../data/release-v01/fr/HIPE-data-v01-sample-fr.tsv	NE-COARSE-LIT-micro-fuzzy	TIME	1.0	1.0	1.0				12	0	0
../../data/release-v01/fr/HIPE-data-v01-sample-fr.tsv	NE-COARSE-LIT-micro-strict	ALL	1.0	1.0	1.0				382	0	0
../../data/release-v01/fr/HIPE-data-v01-sample-fr.tsv	NE-COARSE-LIT-micro-strict	LOC	1.0	1.0	1.0				202	0	0
../../data/release-v01/fr/HIPE-data-v01-sample-fr.tsv	NE-COARSE-LIT-micro-strict	ORG	1.0	1.0	1.0				52	0	0
../../data/release-v01/fr/HIPE-data-v01-sample-fr.tsv	NE-COARSE-LIT-micro-strict	PERS	1.0	1.0	1.0				112	0	0
../../data/release-v01/fr/HIPE-data-v01-sample-fr.tsv	NE-COARSE-LIT-micro-strict	PROD	1.0	1.0	1.0				4	0	0
../../data/release-v01/fr/HIPE-data-v01-sample-fr.tsv	NE-COARSE-LIT-micro-strict	TIME	1.0	1.0	1.0				12	0	0
../../data/release-v01/fr/HIPE-data-v01-sample-fr.tsv	NE-COARSE-LIT-macro_doc-fuzzy	ALL	1.0	1.0	1.0	0.0	0.0	0.0			
../../data/release-v01/fr/HIPE-data-v01-sample-fr.tsv	NE-COARSE-LIT-macro_doc-fuzzy	LOC	1.0	1.0	1.0	0.0	0.0	0.0			
../../data/release-v01/fr/HIPE-data-v01-sample-fr.tsv	NE-COARSE-LIT-macro_doc-fuzzy	ORG	1.0	1.0	1.0	0.0	0.0	0.0			
../../data/release-v01/fr/HIPE-data-v01-sample-fr.tsv	NE-COARSE-LIT-macro_doc-fuzzy	PERS	1.0	1.0	1.0	0.0	0.0	0.0			
../../data/release-v01/fr/HIPE-data-v01-sample-fr.tsv	NE-COARSE-LIT-macro_doc-fuzzy	PROD	1.0	1.0	1.0	0.0	0.0	0.0			
../../data/release-v01/fr/HIPE-data-v01-sample-fr.tsv	NE-COARSE-LIT-macro_doc-fuzzy	TIME	1.0	1.0	1.0	0.0	0.0	0.0			
../../data/release-v01/fr/HIPE-data-v01-sample-fr.tsv	NE-COARSE-LIT-macro_doc-strict	ALL	1.0	1.0	1.0	0.0	0.0	0.0			
../../data/release-v01/fr/HIPE-data-v01-sample-fr.tsv	NE-COARSE-LIT-macro_doc-strict	LOC	1.0	1.0	1.0	0.0	0.0	0.0			
../../data/release-v01/fr/HIPE-data-v01-sample-fr.tsv	NE-COARSE-LIT-macro_doc-strict	ORG	1.0	1.0	1.0	0.0	0.0	0.0			
../../data/release-v01/fr/HIPE-data-v01-sample-fr.tsv	NE-COARSE-LIT-macro_doc-strict	PERS	1.0	1.0	1.0	0.0	0.0	0.0			
../../data/release-v01/fr/HIPE-data-v01-sample-fr.tsv	NE-COARSE-LIT-macro_doc-strict	PROD	1.0	1.0	1.0	0.0	0.0	0.0			
../../data/release-v01/fr/HIPE-data-v01-sample-fr.tsv	NE-COARSE-LIT-macro_doc-strict	TIME	1.0	1.0	1.0	0.0	0.0	0.0			
../../data/release-v01/fr/HIPE-data-v01-sample-fr.tsv	NE-COARSE-METO-micro-fuzzy	ALL	1.0	1.0	1.0				31	0	0
../../data/release-v01/fr/HIPE-data-v01-sample-fr.tsv	NE-COARSE-METO-micro-fuzzy	LOC	1.0	1.0	1.0				1	0	0
../../data/release-v01/fr/HIPE-data-v01-sample-fr.tsv	NE-COARSE-METO-micro-fuzzy	ORG	1.0	1.0	1.0				30	0	0
../../data/release-v01/fr/HIPE-data-v01-sample-fr.tsv	NE-COARSE-METO-micro-strict	ALL	1.0	1.0	1.0				31	0	0
../../data/release-v01/fr/HIPE-data-v01-sample-fr.tsv	NE-COARSE-METO-micro-strict	LOC	1.0	1.0	1.0				1	0	0
../../data/release-v01/fr/HIPE-data-v01-sample-fr.tsv	NE-COARSE-METO-micro-strict	ORG	1.0	1.0	1.0				30	0	0
../../data/release-v01/fr/HIPE-data-v01-sample-fr.tsv	NE-COARSE-METO-macro_doc-fuzzy	ALL	1.0	1.0	1.0	0.0	0.0	0.0			
../../data/release-v01/fr/HIPE-data-v01-sample-fr.tsv	NE-COARSE-METO-macro_doc-fuzzy	LOC	1.0	1.0	1.0	0.0	0.0	0.0			
../../data/release-v01/fr/HIPE-data-v01-sample-fr.tsv	NE-COARSE-METO-macro_doc-fuzzy	ORG	1.0	1.0	1.0	0.0	0.0	0.0			
../../data/release-v01/fr/HIPE-data-v01-sample-fr.tsv	NE-COARSE-METO-macro_doc-strict	ALL	1.0	1.0	1.0	0.0	0.0	0.0			
../../data/release-v01/fr/HIPE-data-v01-sample-fr.tsv	NE-COARSE-METO-macro_doc-strict	LOC	1.0	1.0	1.0	0.0	0.0	0.0			
../../data/release-v01/fr/HIPE-data-v01-sample-fr.tsv	NE-COARSE-METO-macro_doc-strict	ORG	1.0	1.0	1.0	0.0	0.0	0.0			
